{
  "project_info": {
    "project_number": "649451803792",
    "firebase_url": "https://nagwa-connect.firebaseio.com",
    "project_id": "nagwa-connect",
    "storage_bucket": "nagwa-connect.appspot.com"
  },
  "client": [
    {
      "client_info": {
        "mobilesdk_app_id": "1:649451803792:android:226603dce4b0766d177415",
        "android_client_info": {
          "package_name": "com.nagwa.connect.students"
        }
      },
      "oauth_client": [
        {
          "client_id": "649451803792-4fjl7i6305oeoli225ov93gnv5fcah8s.apps.googleusercontent.com",
          "client_type": 3
        }
      ],
      "api_key": [
        {
          "current_key": "AIzaSyCaACl0BDZmt9F-0_DxtYJQ4BkFfNsklo8"
        }
      ],
      "services": {
        "appinvite_service": {
          "other_platform_oauth_client": [
            {
              "client_id": "649451803792-4fjl7i6305oeoli225ov93gnv5fcah8s.apps.googleusercontent.com",
              "client_type": 3
            }
          ]
        }
      }
    }
  ],
  "configuration_version": "1"
}